{
    "primary_color": "#0d897f",
    "primary_color_hover": "lighten(@primary_color, 5%)",
    "primary_color_contrast": "contrast(@primary_color)",
    "primary_font_size": "16px",
    "primary_font": "'Open Sans', Arial, 'Helvetica CY', 'Nimbus Sans L', sans-serif",
    "buttons_color": "@primary_color",
    "buttons_color_contrast": "contrast(@buttons_color)",
    "head_default_background": "#e8e8e8",
    "head_default_background_contrast": "contrast(@head_default_background)",
    "footer_color": "desaturate(darken(@primary_color, 30%), 70%)",
    "footer_color_contrast": "contrast(@footer_color)",
    "toggle": "0",
    "images": "1",
    "stamp": 1538741755
}